EESchema Schematic File Version 4
LIBS:stepper-driver-cache
EELAYER 29 0
EELAYER END
$Descr A4 11693 8268
encoding utf-8
Sheet 1 1
Title ""
Date ""
Rev ""
Comp ""
Comment1 ""
Comment2 ""
Comment3 ""
Comment4 ""
$EndDescr
$Comp
L Device:CP1 C1
U 1 1 5F175326
P 6400 3350
F 0 "C1" V 6550 3300 50  0000 L CNN
F 1 "100 uF" V 6650 3200 50  0000 L CNN
F 2 "Capacitor_THT:CP_Radial_D4.0mm_P2.00mm" H 6400 3350 50  0001 C CNN
F 3 "~" H 6400 3350 50  0001 C CNN
	1    6400 3350
	0    -1   -1   0   
$EndComp
Wire Wire Line
	3800 3750 3500 3750
Wire Wire Line
	5650 3550 7200 3550
Wire Wire Line
	5650 3650 7200 3650
Wire Wire Line
	5650 3750 7200 3750
Wire Wire Line
	5650 3850 7200 3850
$Comp
L Connector:Conn_01x04_Male J4
U 1 1 5F176E59
P 7400 3650
F 0 "J4" H 7508 3931 50  0000 C CNN
F 1 "Nema 17" H 7200 3650 50  0000 C CNN
F 2 "Connector_JST:JST_PH_B4B-PH-K_1x04_P2.00mm_Vertical" H 7400 3650 50  0001 C CNN
F 3 "~" H 7400 3650 50  0001 C CNN
	1    7400 3650
	-1   0    0    -1  
$EndComp
$Comp
L power:GND #PWR0101
U 1 1 5F1EA940
P 3500 3200
F 0 "#PWR0101" H 3500 2950 50  0001 C CNN
F 1 "GND" H 3505 3027 50  0000 C CNN
F 2 "" H 3500 3200 50  0001 C CNN
F 3 "" H 3500 3200 50  0001 C CNN
	1    3500 3200
	-1   0    0    1   
$EndComp
$Comp
L power:GND #PWR0102
U 1 1 5F1EC790
P 6550 3350
F 0 "#PWR0102" H 6550 3100 50  0001 C CNN
F 1 "GND" H 6400 3150 50  0000 C CNN
F 2 "" H 6550 3350 50  0001 C CNN
F 3 "" H 6550 3350 50  0001 C CNN
	1    6550 3350
	-1   0    0    1   
$EndComp
Wire Wire Line
	6550 3450 6550 3350
Wire Wire Line
	5650 3450 6550 3450
$Comp
L power:GND #PWR0103
U 1 1 5F1EDDC0
P 5650 4050
F 0 "#PWR0103" H 5650 3800 50  0001 C CNN
F 1 "GND" H 5655 3877 50  0000 C CNN
F 2 "" H 5650 4050 50  0001 C CNN
F 3 "" H 5650 4050 50  0001 C CNN
	1    5650 4050
	1    0    0    -1  
$EndComp
$Comp
L power:+5V #PWR0104
U 1 1 5F1F1D71
P 3800 4050
F 0 "#PWR0104" H 3800 3900 50  0001 C CNN
F 1 "+5V" H 3815 4223 50  0000 C CNN
F 2 "" H 3800 4050 50  0001 C CNN
F 3 "" H 3800 4050 50  0001 C CNN
	1    3800 4050
	-1   0    0    1   
$EndComp
Wire Wire Line
	3500 4050 3800 4050
Wire Wire Line
	3500 3950 5150 3950
$Comp
L power:+12V #PWR0106
U 1 1 5F20075E
P 3800 3200
F 0 "#PWR0106" H 3800 3050 50  0001 C CNN
F 1 "+12V" H 3815 3373 50  0000 C CNN
F 2 "" H 3800 3200 50  0001 C CNN
F 3 "" H 3800 3200 50  0001 C CNN
	1    3800 3200
	1    0    0    -1  
$EndComp
$Comp
L power:+12V #PWR0107
U 1 1 5F2028AB
P 6250 3300
F 0 "#PWR0107" H 6250 3150 50  0001 C CNN
F 1 "+12V" H 6100 3450 50  0000 C CNN
F 2 "" H 6250 3300 50  0001 C CNN
F 3 "" H 6250 3300 50  0001 C CNN
	1    6250 3300
	1    0    0    -1  
$EndComp
Wire Wire Line
	5650 3350 6250 3350
Wire Wire Line
	6250 3350 6250 3300
Wire Wire Line
	3800 3750 3800 3200
Wire Wire Line
	3500 3850 5150 3850
Text Label 4850 4050 0    50   ~ 0
DIR
Text Label 4800 3950 0    50   ~ 0
STEP
Text Label 4750 3850 0    50   ~ 0
SLEEP
$Comp
L Device:Jumper_NO_Small JP1
U 1 1 5F20910B
P 5050 3450
F 0 "JP1" H 5050 3600 50  0000 C CNN
F 1 "Jumper_NO_Small" H 4800 3800 50  0000 C CNN
F 2 "Connector_PinHeader_2.00mm:PinHeader_1x02_P2.00mm_Vertical" H 5050 3450 50  0001 C CNN
F 3 "~" H 5050 3450 50  0001 C CNN
	1    5050 3450
	1    0    0    -1  
$EndComp
$Comp
L power:+5V #PWR0108
U 1 1 5F20A76C
P 4950 3450
F 0 "#PWR0108" H 4950 3300 50  0001 C CNN
F 1 "+5V" H 4800 3550 50  0000 C CNN
F 2 "" H 4950 3450 50  0001 C CNN
F 3 "" H 4950 3450 50  0001 C CNN
	1    4950 3450
	1    0    0    -1  
$EndComp
$Comp
L Device:Jumper_NO_Small JP2
U 1 1 5F20AEC4
P 5050 3550
F 0 "JP2" H 4900 3500 50  0000 C CNN
F 1 "Jumper_NO_Small" H 4550 3900 50  0000 C CNN
F 2 "Connector_PinHeader_2.00mm:PinHeader_1x02_P2.00mm_Vertical" H 5050 3550 50  0001 C CNN
F 3 "~" H 5050 3550 50  0001 C CNN
	1    5050 3550
	1    0    0    -1  
$EndComp
$Comp
L power:+5V #PWR0109
U 1 1 5F20B4EE
P 4950 3550
F 0 "#PWR0109" H 4950 3400 50  0001 C CNN
F 1 "+5V" H 4800 3600 50  0000 C CNN
F 2 "" H 4950 3550 50  0001 C CNN
F 3 "" H 4950 3550 50  0001 C CNN
	1    4950 3550
	1    0    0    -1  
$EndComp
Wire Wire Line
	3500 3200 3500 3650
$Comp
L power:+5V #PWR0110
U 1 1 5F20CEFB
P 5150 4050
F 0 "#PWR0110" H 5150 3900 50  0001 C CNN
F 1 "+5V" H 5300 4150 50  0000 C CNN
F 2 "" H 5150 4050 50  0001 C CNN
F 3 "" H 5150 4050 50  0001 C CNN
	1    5150 4050
	-1   0    0    1   
$EndComp
$Comp
L Connector:Conn_01x05_Male J1
U 1 1 5F20E466
P 3300 3850
F 0 "J1" H 3408 4231 50  0000 C CNN
F 1 "Input" H 3150 3850 50  0000 C CNN
F 2 "Connector_JST:JST_PH_B5B-PH-K_1x05_P2.00mm_Vertical" H 3300 3850 50  0001 C CNN
F 3 "~" H 3300 3850 50  0001 C CNN
	1    3300 3850
	1    0    0    -1  
$EndComp
Connection ~ 6250 3350
Connection ~ 6550 3350
NoConn ~ 5150 3350
NoConn ~ 5150 3650
Text Label 4750 3750 0    50   ~ 0
RESET
$Comp
L power:+5V #PWR0111
U 1 1 5F213F37
P 5150 3750
F 0 "#PWR0111" H 5150 3600 50  0001 C CNN
F 1 "+5V" V 5165 3878 50  0000 L CNN
F 2 "" H 5150 3750 50  0001 C CNN
F 3 "" H 5150 3750 50  0001 C CNN
	1    5150 3750
	0    -1   -1   0   
$EndComp
$Comp
L power:PWR_FLAG #FLG0101
U 1 1 5F2151B8
P 3050 3100
F 0 "#FLG0101" H 3050 3175 50  0001 C CNN
F 1 "PWR_FLAG" H 3050 3273 50  0000 C CNN
F 2 "" H 3050 3100 50  0001 C CNN
F 3 "~" H 3050 3100 50  0001 C CNN
	1    3050 3100
	1    0    0    -1  
$EndComp
$Comp
L power:+5V #PWR0112
U 1 1 5F215A53
P 3050 3100
F 0 "#PWR0112" H 3050 2950 50  0001 C CNN
F 1 "+5V" H 3065 3273 50  0000 C CNN
F 2 "" H 3050 3100 50  0001 C CNN
F 3 "" H 3050 3100 50  0001 C CNN
	1    3050 3100
	-1   0    0    1   
$EndComp
$Comp
L power:PWR_FLAG #FLG0102
U 1 1 5F2161D0
P 2650 3100
F 0 "#FLG0102" H 2650 3175 50  0001 C CNN
F 1 "PWR_FLAG" H 2650 3273 50  0000 C CNN
F 2 "" H 2650 3100 50  0001 C CNN
F 3 "~" H 2650 3100 50  0001 C CNN
	1    2650 3100
	1    0    0    -1  
$EndComp
$Comp
L power:GND #PWR0113
U 1 1 5F216FFA
P 2650 3100
F 0 "#PWR0113" H 2650 2850 50  0001 C CNN
F 1 "GND" H 2655 2927 50  0000 C CNN
F 2 "" H 2650 3100 50  0001 C CNN
F 3 "" H 2650 3100 50  0001 C CNN
	1    2650 3100
	1    0    0    -1  
$EndComp
$Comp
L power:PWR_FLAG #FLG0103
U 1 1 5F217A22
P 2250 3100
F 0 "#FLG0103" H 2250 3175 50  0001 C CNN
F 1 "PWR_FLAG" H 2250 3273 50  0000 C CNN
F 2 "" H 2250 3100 50  0001 C CNN
F 3 "~" H 2250 3100 50  0001 C CNN
	1    2250 3100
	1    0    0    -1  
$EndComp
$Comp
L power:+12V #PWR0114
U 1 1 5F217F3F
P 2250 3100
F 0 "#PWR0114" H 2250 2950 50  0001 C CNN
F 1 "+12V" H 2265 3273 50  0000 C CNN
F 2 "" H 2250 3100 50  0001 C CNN
F 3 "" H 2250 3100 50  0001 C CNN
	1    2250 3100
	-1   0    0    1   
$EndComp
$Comp
L power:+5V #PWR0105
U 1 1 5F1F2E0D
P 5650 3950
F 0 "#PWR0105" H 5650 3800 50  0001 C CNN
F 1 "+5V" V 5665 4078 50  0000 L CNN
F 2 "" H 5650 3950 50  0001 C CNN
F 3 "" H 5650 3950 50  0001 C CNN
	1    5650 3950
	0    1    1    0   
$EndComp
$Comp
L Connector:Conn_01x08_Female J2
U 1 1 5F22BC1A
P 5350 3650
F 0 "J2" H 5250 4050 50  0000 L CNN
F 1 "Conn_01x08_Female" H 4700 3000 50  0000 L CNN
F 2 "Connector_PinSocket_2.54mm:PinSocket_1x08_P2.54mm_Vertical" H 5350 3650 50  0001 C CNN
F 3 "~" H 5350 3650 50  0001 C CNN
	1    5350 3650
	1    0    0    -1  
$EndComp
$Comp
L Connector:Conn_01x08_Female J3
U 1 1 5F22D715
P 5450 3750
F 0 "J3" H 5250 3250 50  0000 C CNN
F 1 "Conn_01x08_Female" H 5300 2950 50  0000 C CNN
F 2 "Connector_PinSocket_2.54mm:PinSocket_1x08_P2.54mm_Vertical" H 5450 3750 50  0001 C CNN
F 3 "~" H 5450 3750 50  0001 C CNN
	1    5450 3750
	-1   0    0    1   
$EndComp
$EndSCHEMATC
