EESchema Schematic File Version 4
EELAYER 29 0
EELAYER END
$Descr A4 11693 8268
encoding utf-8
Sheet 1 1
Title ""
Date ""
Rev ""
Comp ""
Comment1 ""
Comment2 ""
Comment3 ""
Comment4 ""
$EndDescr
$Comp
L MCU_Microchip_ATmega:ATmega328-PU U1
U 1 1 5F15A402
P 5950 4550
F 0 "U1" V 5169 4550 50  0000 C CNN
F 1 "ATmega328-PU" V 5260 4550 50  0000 C CNN
F 2 "Package_DIP:DIP-28_W7.62mm" H 5950 4550 50  0001 C CIN
F 3 "http://ww1.microchip.com/downloads/en/DeviceDoc/ATmega328_P%20AVR%20MCU%20with%20picoPower%20Technology%20Data%20Sheet%2040001984A.pdf" H 5950 4550 50  0001 C CNN
	1    5950 4550
	0    1    1    0   
$EndComp
$Comp
L Connector:Conn_01x06_Male J6
U 1 1 5F160AF9
P 10400 1800
F 0 "J6" H 10508 2181 50  0000 C CNN
F 1 "Conn_01x06_Male" H 10508 2090 50  0000 C CNN
F 2 "" H 10400 1800 50  0001 C CNN
F 3 "~" H 10400 1800 50  0001 C CNN
	1    10400 1800
	1    0    0    -1  
$EndComp
$Comp
L Connector:Conn_01x06_Male J1
U 1 1 5F162155
P 1600 1750
F 0 "J1" H 1708 2131 50  0000 C CNN
F 1 "Conn_01x06_Male" H 1708 2040 50  0000 C CNN
F 2 "" H 1600 1750 50  0001 C CNN
F 3 "~" H 1600 1750 50  0001 C CNN
	1    1600 1750
	1    0    0    -1  
$EndComp
$Comp
L Connector:Conn_01x04_Male J4
U 1 1 5F1632E9
P 5600 1350
F 0 "J4" V 5662 1494 50  0000 L CNN
F 1 "Conn_01x04_Male" V 5753 1494 50  0000 L CNN
F 2 "" H 5600 1350 50  0001 C CNN
F 3 "~" H 5600 1350 50  0001 C CNN
	1    5600 1350
	0    1    1    0   
$EndComp
$Comp
L Connector:Conn_01x02_Male J5
U 1 1 5F1642C4
P 9400 1850
F 0 "J5" H 9508 2031 50  0000 C CNN
F 1 "Conn_01x02_Male" H 9508 1940 50  0000 C CNN
F 2 "" H 9400 1850 50  0001 C CNN
F 3 "~" H 9400 1850 50  0001 C CNN
	1    9400 1850
	1    0    0    -1  
$EndComp
$Comp
L Connector:Conn_01x02_Male J7
U 1 1 5F164FCC
P 10400 4900
F 0 "J7" H 10508 5081 50  0000 C CNN
F 1 "Conn_01x02_Male" H 10508 4990 50  0000 C CNN
F 2 "" H 10400 4900 50  0001 C CNN
F 3 "~" H 10400 4900 50  0001 C CNN
	1    10400 4900
	1    0    0    -1  
$EndComp
$Comp
L Connector:Conn_01x02_Male J2
U 1 1 5F165A7E
P 1600 4750
F 0 "J2" H 1708 4931 50  0000 C CNN
F 1 "Conn_01x02_Male" H 1708 4840 50  0000 C CNN
F 2 "" H 1600 4750 50  0001 C CNN
F 3 "~" H 1600 4750 50  0001 C CNN
	1    1600 4750
	1    0    0    -1  
$EndComp
$Comp
L Connector:Conn_01x02_Male J3
U 1 1 5F16668E
P 2650 1850
F 0 "J3" H 2758 2031 50  0000 C CNN
F 1 "Conn_01x02_Male" H 2758 1940 50  0000 C CNN
F 2 "" H 2650 1850 50  0001 C CNN
F 3 "~" H 2650 1850 50  0001 C CNN
	1    2650 1850
	1    0    0    -1  
$EndComp
$Comp
L Transistor_BJT:TIP122 Q?
U 1 1 5F16774E
P 9250 4850
F 0 "Q?" H 9457 4896 50  0000 L CNN
F 1 "TIP122" H 9457 4805 50  0000 L CNN
F 2 "Package_TO_SOT_THT:TO-220-3_Vertical" H 9450 4775 50  0001 L CIN
F 3 "http://www.fairchildsemi.com/ds/TI/TIP120.pdf" H 9250 4850 50  0001 L CNN
	1    9250 4850
	1    0    0    -1  
$EndComp
$Comp
L Transistor_BJT:TIP122 Q?
U 1 1 5F168B7C
P 2950 4750
F 0 "Q?" H 3157 4796 50  0000 L CNN
F 1 "TIP122" H 3157 4705 50  0000 L CNN
F 2 "Package_TO_SOT_THT:TO-220-3_Vertical" H 3150 4675 50  0001 L CIN
F 3 "http://www.fairchildsemi.com/ds/TI/TIP120.pdf" H 2950 4750 50  0001 L CNN
	1    2950 4750
	1    0    0    -1  
$EndComp
$Comp
L Diode:1N4001 D?
U 1 1 5F169BE8
P 9350 4050
F 0 "D?" H 9350 4266 50  0000 C CNN
F 1 "1N4001" H 9350 4175 50  0000 C CNN
F 2 "Diode_THT:D_DO-41_SOD81_P10.16mm_Horizontal" H 9350 3875 50  0001 C CNN
F 3 "http://www.vishay.com/docs/88503/1n4001.pdf" H 9350 4050 50  0001 C CNN
	1    9350 4050
	1    0    0    -1  
$EndComp
$Comp
L Diode:1N4001 D?
U 1 1 5F16B273
P 3050 3950
F 0 "D?" H 3050 4166 50  0000 C CNN
F 1 "1N4001" H 3050 4075 50  0000 C CNN
F 2 "Diode_THT:D_DO-41_SOD81_P10.16mm_Horizontal" H 3050 3775 50  0001 C CNN
F 3 "http://www.vishay.com/docs/88503/1n4001.pdf" H 3050 3950 50  0001 C CNN
	1    3050 3950
	1    0    0    -1  
$EndComp
$Comp
L Device:R R?
U 1 1 5F16C848
P 8700 4350
F 0 "R?" H 8770 4396 50  0000 L CNN
F 1 "R" H 8770 4305 50  0000 L CNN
F 2 "" V 8630 4350 50  0001 C CNN
F 3 "~" H 8700 4350 50  0001 C CNN
	1    8700 4350
	1    0    0    -1  
$EndComp
$Comp
L Device:R R?
U 1 1 5F16D003
P 2400 4300
F 0 "R?" H 2470 4346 50  0000 L CNN
F 1 "R" H 2470 4255 50  0000 L CNN
F 2 "" V 2330 4300 50  0001 C CNN
F 3 "~" H 2400 4300 50  0001 C CNN
	1    2400 4300
	1    0    0    -1  
$EndComp
$Comp
L Device:R R?
U 1 1 5F16DDF2
P 5050 1950
F 0 "R?" H 5120 1996 50  0000 L CNN
F 1 "R" H 5120 1905 50  0000 L CNN
F 2 "" V 4980 1950 50  0001 C CNN
F 3 "~" H 5050 1950 50  0001 C CNN
	1    5050 1950
	1    0    0    -1  
$EndComp
$Comp
L Device:CP1 C?
U 1 1 5F16EEDD
P 6100 1900
F 0 "C?" H 6215 1946 50  0000 L CNN
F 1 "CP1" H 6215 1855 50  0000 L CNN
F 2 "" H 6100 1900 50  0001 C CNN
F 3 "~" H 6100 1900 50  0001 C CNN
	1    6100 1900
	1    0    0    -1  
$EndComp
$Comp
L power:+1V5 #PWR?
U 1 1 5F16FCFD
P 5950 3000
F 0 "#PWR?" H 5950 2850 50  0001 C CNN
F 1 "+1V5" H 5965 3173 50  0000 C CNN
F 2 "" H 5950 3000 50  0001 C CNN
F 3 "" H 5950 3000 50  0001 C CNN
	1    5950 3000
	1    0    0    -1  
$EndComp
$Comp
L power:Earth #PWR?
U 1 1 5F170217
P 5100 2950
F 0 "#PWR?" H 5100 2700 50  0001 C CNN
F 1 "Earth" H 5100 2800 50  0001 C CNN
F 2 "" H 5100 2950 50  0001 C CNN
F 3 "~" H 5100 2950 50  0001 C CNN
	1    5100 2950
	1    0    0    -1  
$EndComp
$Comp
L Connector:Barrel_Jack J?
U 1 1 5F171AF3
P 6750 2850
F 0 "J?" H 6807 3175 50  0000 C CNN
F 1 "Barrel_Jack" H 6807 3084 50  0000 C CNN
F 2 "" H 6800 2810 50  0001 C CNN
F 3 "~" H 6800 2810 50  0001 C CNN
	1    6750 2850
	1    0    0    -1  
$EndComp
$EndSCHEMATC
