EESchema Schematic File Version 4
LIBS:controller-cache
EELAYER 29 0
EELAYER END
$Descr A4 11693 8268
encoding utf-8
Sheet 1 1
Title ""
Date ""
Rev ""
Comp ""
Comment1 ""
Comment2 ""
Comment3 ""
Comment4 ""
$EndDescr
$Comp
L Connector:Conn_01x07_Male J4
U 1 1 5F1A0888
P 9100 1700
F 0 "J4" H 9072 1632 50  0000 R CNN
F 1 "Unit3" H 9200 1250 50  0000 R CNN
F 2 "Connector_JST:JST_PH_B7B-PH-K_1x07_P2.00mm_Vertical" H 9100 1700 50  0001 C CNN
F 3 "~" H 9100 1700 50  0001 C CNN
	1    9100 1700
	-1   0    0    1   
$EndComp
$Comp
L Connector:Conn_01x07_Male J3
U 1 1 5F1A1CA7
P 7400 1700
F 0 "J3" H 7372 1632 50  0000 R CNN
F 1 "Unit2" H 7400 1250 50  0000 R CNN
F 2 "Connector_JST:JST_PH_B7B-PH-K_1x07_P2.00mm_Vertical" H 7400 1700 50  0001 C CNN
F 3 "~" H 7400 1700 50  0001 C CNN
	1    7400 1700
	-1   0    0    1   
$EndComp
$Comp
L power:+12V #PWR0101
U 1 1 5F1A44A6
P 5400 800
F 0 "#PWR0101" H 5400 650 50  0001 C CNN
F 1 "+12V" H 5415 973 50  0000 C CNN
F 2 "" H 5400 800 50  0001 C CNN
F 3 "" H 5400 800 50  0001 C CNN
	1    5400 800 
	1    0    0    -1  
$EndComp
$Comp
L power:GND #PWR0102
U 1 1 5F1A54DD
P 5100 1150
F 0 "#PWR0102" H 5100 900 50  0001 C CNN
F 1 "GND" H 5105 977 50  0000 C CNN
F 2 "" H 5100 1150 50  0001 C CNN
F 3 "" H 5100 1150 50  0001 C CNN
	1    5100 1150
	1    0    0    -1  
$EndComp
Wire Wire Line
	4200 1000 5400 1000
Wire Wire Line
	4200 1100 4950 1100
Wire Wire Line
	5400 1000 5400 2000
Wire Wire Line
	5950 2000 5400 2000
Connection ~ 5400 2000
Wire Wire Line
	5400 2000 5400 2300
$Comp
L Connector:Conn_01x07_Male J2
U 1 1 5F1A35DA
P 6150 1700
F 0 "J2" V 5985 1678 50  0000 C CNN
F 1 "Unit1" H 5900 1250 50  0000 C CNN
F 2 "Connector_JST:JST_PH_B7B-PH-K_1x07_P2.00mm_Vertical" H 6150 1700 50  0001 C CNN
F 3 "~" H 6150 1700 50  0001 C CNN
	1    6150 1700
	-1   0    0    1   
$EndComp
Wire Wire Line
	5950 1900 4950 1900
Wire Wire Line
	4950 1900 4950 1100
Connection ~ 4950 1100
Wire Wire Line
	4950 1100 5100 1100
Wire Wire Line
	5950 1800 5700 1800
Wire Wire Line
	5700 1800 5700 2100
Wire Wire Line
	4950 4700 5500 4700
Connection ~ 4950 1900
Wire Wire Line
	6850 1900 6850 4700
Wire Wire Line
	8200 1900 8200 4700
Wire Wire Line
	8800 2000 8800 2550
Wire Wire Line
	8800 2550 5400 2550
Connection ~ 5400 2550
Wire Wire Line
	5400 2550 5400 2600
Wire Wire Line
	7200 2000 7200 2300
Wire Wire Line
	7200 2300 5400 2300
Connection ~ 5400 2300
Wire Wire Line
	5400 2300 5400 2550
Wire Wire Line
	7800 1800 7800 2350
Wire Wire Line
	7800 2350 5700 2350
Connection ~ 5700 2350
Wire Wire Line
	5700 2350 5700 2600
Wire Wire Line
	6700 1800 6700 2100
Wire Wire Line
	6700 2100 5700 2100
Connection ~ 5700 2100
Wire Wire Line
	5700 2100 5700 2350
Wire Wire Line
	5000 3800 4200 3800
Wire Wire Line
	4200 3800 4200 1700
Wire Wire Line
	4200 1700 5950 1700
Wire Wire Line
	5000 3900 4100 3900
Wire Wire Line
	4100 3900 4100 1600
Wire Wire Line
	4100 1600 5950 1600
Wire Wire Line
	6000 3600 6250 3600
Wire Wire Line
	6250 3600 6250 4900
Wire Wire Line
	6250 4900 3750 4900
Wire Wire Line
	3750 4900 3750 1400
Wire Wire Line
	3750 1400 5950 1400
Wire Wire Line
	6000 3700 6350 3700
Wire Wire Line
	6350 3700 6350 5000
Wire Wire Line
	6350 5000 3650 5000
Wire Wire Line
	6700 1800 7200 1800
Wire Wire Line
	6850 1900 7200 1900
Wire Wire Line
	5000 3600 4850 3600
Wire Wire Line
	4850 3600 4850 5100
Wire Wire Line
	4850 5100 6600 5100
Wire Wire Line
	6600 5100 6600 1700
Wire Wire Line
	6600 1700 7200 1700
Wire Wire Line
	5000 3700 4700 3700
Wire Wire Line
	4700 3700 4700 5200
Wire Wire Line
	4700 5200 6750 5200
Wire Wire Line
	6750 5200 6750 1600
Wire Wire Line
	6750 1600 7200 1600
Wire Wire Line
	6000 3800 6900 3800
Wire Wire Line
	6900 3800 6900 1400
Wire Wire Line
	6900 1400 7200 1400
Wire Wire Line
	6000 3900 7150 3900
Wire Wire Line
	7150 3900 7150 1500
Wire Wire Line
	7150 1500 7200 1500
Wire Wire Line
	4600 5300 8600 5300
Wire Wire Line
	8600 5300 8600 1500
Wire Wire Line
	8600 1500 8900 1500
Wire Wire Line
	8900 2000 8800 2000
Wire Wire Line
	8900 1900 8200 1900
Wire Wire Line
	8900 1800 7800 1800
Wire Wire Line
	4500 5400 8500 5400
Wire Wire Line
	8500 5400 8500 1400
Wire Wire Line
	8500 1400 8900 1400
Wire Wire Line
	6000 4200 8400 4200
Wire Wire Line
	8400 4200 8400 1600
Wire Wire Line
	8400 1600 8900 1600
Wire Wire Line
	6000 4300 8350 4300
$Comp
L Connector:Conn_01x02_Male J1
U 1 1 5F1FCF5B
P 4000 1000
F 0 "J1" H 4108 1181 50  0000 C CNN
F 1 "- +12v" V 3900 1000 50  0000 C CNN
F 2 "Connector_JST:JST_PH_B2B-PH-K_1x02_P2.00mm_Vertical" H 4000 1000 50  0001 C CNN
F 3 "~" H 4000 1000 50  0001 C CNN
	1    4000 1000
	1    0    0    -1  
$EndComp
Wire Wire Line
	5400 800  5400 1000
Connection ~ 5400 1000
Wire Wire Line
	5100 1100 5100 1150
NoConn ~ 6100 4000
NoConn ~ 6100 4100
NoConn ~ 6100 3400
NoConn ~ 6100 3100
NoConn ~ 5000 3050
NoConn ~ 5000 3150
NoConn ~ 5000 3250
NoConn ~ 5000 3350
NoConn ~ 5000 4350
NoConn ~ 5000 4250
NoConn ~ 5000 4150
NoConn ~ 5000 4050
Wire Wire Line
	6100 4000 6000 4000
Wire Wire Line
	6100 4100 6000 4100
Wire Wire Line
	5000 4050 5000 4000
Wire Wire Line
	5000 4150 5000 4100
Wire Wire Line
	5000 4250 5000 4200
Wire Wire Line
	5000 4350 5000 4300
Wire Wire Line
	5000 3050 5000 3000
Wire Wire Line
	5000 3150 5000 3100
Wire Wire Line
	5000 3250 5000 3200
Wire Wire Line
	5000 3350 5000 3300
NoConn ~ 5550 2600
Wire Wire Line
	5550 2600 5600 2600
Wire Wire Line
	6100 3100 6000 3100
Wire Wire Line
	6100 3400 6000 3400
NoConn ~ 6100 3000
Wire Wire Line
	6100 3000 6000 3000
Wire Wire Line
	3650 1500 5950 1500
Wire Wire Line
	3650 5000 3650 1500
Wire Wire Line
	8350 1700 8900 1700
Wire Wire Line
	8350 4300 8350 1700
Wire Wire Line
	4600 3400 4600 5300
Wire Wire Line
	4500 3500 4500 5400
Wire Wire Line
	4500 3500 5000 3500
Wire Wire Line
	4600 3400 5000 3400
$Comp
L MCU_Module:Arduino_Nano_v3.x A1
U 1 1 5F19CD6B
P 5500 3600
F 0 "A1" H 5500 2511 50  0000 C CNN
F 1 "Arduino_Nano_v3.x" H 5500 2420 50  0000 C CNN
F 2 "Module:Arduino_Nano" H 5650 2650 50  0001 L CNN
F 3 "http://www.mouser.com/pdfdocs/Gravitech_Arduino_Nano3_0.pdf" H 5500 2600 50  0001 C CNN
	1    5500 3600
	1    0    0    -1  
$EndComp
Wire Wire Line
	6850 4700 5600 4700
Wire Wire Line
	5600 4700 5600 4600
Wire Wire Line
	4950 1900 4950 4700
Wire Wire Line
	8200 4700 6850 4700
Connection ~ 6850 4700
Wire Wire Line
	5500 4700 5500 4600
Wire Wire Line
	5500 4700 5600 4700
Connection ~ 5500 4700
Connection ~ 5600 4700
$EndSCHEMATC
