EESchema Schematic File Version 4
LIBS:solenoid-driver-cache
EELAYER 29 0
EELAYER END
$Descr A4 11693 8268
encoding utf-8
Sheet 1 1
Title ""
Date ""
Rev ""
Comp ""
Comment1 ""
Comment2 ""
Comment3 ""
Comment4 ""
$EndDescr
$Comp
L Connector:Conn_01x07_Male J2
U 1 1 5F15EDCF
P 8150 3750
F 0 "J2" V 7985 3728 50  0000 C CNN
F 1 "Input" H 7850 3950 50  0000 C CNN
F 2 "Connector_JST:JST_PH_B7B-PH-K_1x07_P2.00mm_Vertical" H 8150 3750 50  0001 C CNN
F 3 "~" H 8150 3750 50  0001 C CNN
	1    8150 3750
	-1   0    0    1   
$EndComp
$Comp
L Diode:1N4001 D1
U 1 1 5F165C22
P 5300 4050
F 0 "D1" H 5300 3834 50  0000 C CNN
F 1 "1N4001" H 5300 3925 50  0000 C CNN
F 2 "Diode_THT:D_DO-41_SOD81_P5.08mm_Vertical_KathodeUp" H 5300 3875 50  0001 C CNN
F 3 "http://www.vishay.com/docs/88503/1n4001.pdf" H 5300 4050 50  0001 C CNN
	1    5300 4050
	1    0    0    1   
$EndComp
Wire Wire Line
	7950 4050 7050 4050
Wire Wire Line
	7950 3650 3050 3650
Wire Wire Line
	7950 3750 3050 3750
Wire Wire Line
	7950 3850 7850 3850
Wire Wire Line
	7950 3950 7500 3950
Wire Wire Line
	6350 3950 6350 3450
Wire Wire Line
	6350 3450 3700 3450
Wire Wire Line
	6200 4050 6200 3550
Wire Wire Line
	6200 3550 3450 3550
Connection ~ 6200 4050
Wire Wire Line
	6200 4050 5450 4050
$Comp
L Device:R R1
U 1 1 5F178E98
P 7950 3000
F 0 "R1" H 7750 3050 50  0000 L CNN
F 1 "1K" H 8050 3000 50  0000 L CNN
F 2 "Resistor_THT:R_Axial_DIN0207_L6.3mm_D2.5mm_P2.54mm_Vertical" V 7880 3000 50  0001 C CNN
F 3 "~" H 7950 3000 50  0001 C CNN
	1    7950 3000
	1    0    0    -1  
$EndComp
$Comp
L Transistor_BJT:TIP120 Q1
U 1 1 5F179DF7
P 7550 1950
F 0 "Q1" H 7757 1996 50  0000 L CNN
F 1 "TIP120" H 7757 1905 50  0000 L CNN
F 2 "Package_TO_SOT_THT:TO-220-3_Vertical" H 7750 1875 50  0001 L CIN
F 3 "http://www.fairchildsemi.com/ds/TI/TIP120.pdf" H 7550 1950 50  0001 L CNN
	1    7550 1950
	-1   0    0    -1  
$EndComp
Wire Wire Line
	7950 3450 7950 3150
Wire Wire Line
	7950 2850 7950 1950
Wire Wire Line
	7950 1950 7750 1950
Wire Wire Line
	7450 1750 4300 1750
Wire Wire Line
	4300 1750 4300 3950
Wire Wire Line
	7450 2150 3700 2150
Wire Wire Line
	3700 2150 3700 3450
Connection ~ 3700 3450
Wire Wire Line
	3700 3450 3200 3450
$Comp
L Connector:Conn_01x07_Male J1
U 1 1 5F17C98B
P 2850 3750
F 0 "J1" H 2650 3700 50  0000 R CNN
F 1 "Output" H 2700 3900 50  0000 R CNN
F 2 "Connector_JST:JST_PH_B7B-PH-K_1x07_P2.00mm_Vertical" H 2850 3750 50  0001 C CNN
F 3 "~" H 2850 3750 50  0001 C CNN
	1    2850 3750
	1    0    0    1   
$EndComp
Wire Wire Line
	4300 3950 3050 3950
Wire Wire Line
	5150 4050 3050 4050
$Comp
L power:GND #PWR0101
U 1 1 5F175C02
P 7500 4300
F 0 "#PWR0101" H 7500 4050 50  0001 C CNN
F 1 "GND" H 7505 4127 50  0000 C CNN
F 2 "" H 7500 4300 50  0001 C CNN
F 3 "" H 7500 4300 50  0001 C CNN
	1    7500 4300
	1    0    0    -1  
$EndComp
Wire Wire Line
	7500 3950 7500 4300
Connection ~ 7500 3950
Wire Wire Line
	7500 3950 6350 3950
Connection ~ 7050 4050
Wire Wire Line
	7050 4050 6200 4050
Wire Wire Line
	7050 4300 7050 4050
$Comp
L power:+12V #PWR0102
U 1 1 5F176714
P 7050 4300
F 0 "#PWR0102" H 7050 4150 50  0001 C CNN
F 1 "+12V" H 7065 4473 50  0000 C CNN
F 2 "" H 7050 4300 50  0001 C CNN
F 3 "" H 7050 4300 50  0001 C CNN
	1    7050 4300
	-1   0    0    1   
$EndComp
$Comp
L power:+5V #PWR0103
U 1 1 5F178B33
P 7850 4300
F 0 "#PWR0103" H 7850 4150 50  0001 C CNN
F 1 "+5V" H 7865 4473 50  0000 C CNN
F 2 "" H 7850 4300 50  0001 C CNN
F 3 "" H 7850 4300 50  0001 C CNN
	1    7850 4300
	-1   0    0    1   
$EndComp
Wire Wire Line
	7850 3850 7850 4300
Connection ~ 7850 3850
Wire Wire Line
	7850 3850 3350 3850
$Comp
L power:GND #PWR0104
U 1 1 5F179E92
P 3200 3100
F 0 "#PWR0104" H 3200 2850 50  0001 C CNN
F 1 "GND" H 3205 2927 50  0000 C CNN
F 2 "" H 3200 3100 50  0001 C CNN
F 3 "" H 3200 3100 50  0001 C CNN
	1    3200 3100
	-1   0    0    1   
$EndComp
Wire Wire Line
	3200 3100 3200 3450
Connection ~ 3200 3450
Wire Wire Line
	3200 3450 3050 3450
$Comp
L power:+12V #PWR0105
U 1 1 5F17B05A
P 3450 3050
F 0 "#PWR0105" H 3450 2900 50  0001 C CNN
F 1 "+12V" H 3465 3223 50  0000 C CNN
F 2 "" H 3450 3050 50  0001 C CNN
F 3 "" H 3450 3050 50  0001 C CNN
	1    3450 3050
	1    0    0    -1  
$EndComp
Wire Wire Line
	3450 3050 3450 3550
Connection ~ 3450 3550
Wire Wire Line
	3450 3550 3050 3550
$Comp
L power:+5V #PWR0106
U 1 1 5F17BAB2
P 3350 4300
F 0 "#PWR0106" H 3350 4150 50  0001 C CNN
F 1 "+5V" H 3365 4473 50  0000 C CNN
F 2 "" H 3350 4300 50  0001 C CNN
F 3 "" H 3350 4300 50  0001 C CNN
	1    3350 4300
	-1   0    0    1   
$EndComp
Wire Wire Line
	3350 4300 3350 3850
Connection ~ 3350 3850
Wire Wire Line
	3350 3850 3050 3850
$EndSCHEMATC
